…
``` r
# setup_vns_condaenv()
use_vns_condaenv()
```

### Example Data Sets

``` r
amazon_review_tbl <- load_amazon_review_tbl()

amazon_review_tbl
#> # A tibble: 210,000 × 4
#>   doc_id     doc_title                        doc_text             doc_label_num
#>   <chr>      <chr>                            <chr>                        <int>
#> 1 de_0784695 Leider nicht zu empfehlen        Leider, leider nach…             0
#> 2 de_0759207 Gummierung nach 6 Monaten kaputt zunächst macht der …             0
#> 3 de_0711785 Flohmarkt ware                   Siegel sowie Verpac…             0
#> 4 de_0964430 Katastrophe                      Habe dieses Produkt…             0
#> 5 de_0474538 Reißverschluss klemmt            Die Träger sind sch…             0
#> # ℹ 209,995 more rows
```

### Document Parsing

Sentence boundary detection, tokenization, and POS tagging via spaCy.

``` r
amazon_review_tbl |> 
  dplyr::slice_sample(n=1e3) |> 
  dplyr::pull(doc_text) |> 
  parse_doc_spacy()
#> # A tibble: 37,778 × 5
#>   doc_id sen_id tok_str tok_pos tok_tag
#>    <int>  <int> <chr>   <chr>   <chr>  
#> 1      0      1 Es      PRON    PPER   
#> 2      0      1 ist     AUX     VAFIN  
#> 3      0      1 NICHT   PART    PTKNEG 
#> 4      0      1 von     ADP     APPR   
#> 5      0      1 Samsung PROPN   NE     
#> # ℹ 37,773 more rows
```
…
